%YAML 1.1
%TAG !u! tag:unity3d.com,2011:
--- !u!1 &7585475391044476882
GameObject:
  m_ObjectHideFlags: 0
  m_CorrespondingSourceObject: {fileID: 0}
  m_PrefabInstance: {fileID: 0}
  m_PrefabAsset: {fileID: 0}
  serializedVersion: 6
  m_Component:
  - component: {fileID: 1814929946611319257}
  m_Layer: 0
  m_Name: Empty
  m_TagString: Untagged
  m_Icon: {fileID: 0}
  m_NavMeshLayer: 0
  m_StaticEditorFlags: 0
  m_IsActive: 1
--- !u!4 &1814929946611319257
Transform:
  m_ObjectHideFlags: 0
  m_CorrespondingSourceObject: {fileID: 0}
  m_PrefabInstance: {fileID: 0}
  m_PrefabAsset: {fileID: 0}
  m_GameObject: {fileID: 7585475391044476882}
  m_LocalRotation: {x: 0, y: 0, z: 0, w: 1}
  m_LocalPosition: {x: -3.4886694, y: 31.285336, z: -8.474206}
  m_LocalScale: {x: 1, y: 1, z: 1}
  m_Children:
  - {fileID: 2819855973488295806}
  m_Father: {fileID: 0}
  m_RootOrder: 0
  m_LocalEulerAnglesHint: {x: 0, y: 0, z: 0}
--- !u!1001 &253413653744288352
PrefabInstance:
  m_ObjectHideFlags: 0
  serializedVersion: 2
  m_Modification:
    m_TransformParent: {fileID: 1814929946611319257}
    m_Modifications:
    - target: {fileID: 2640915266357296414, guid: e56b57c377890c74cb68a655fa0c4e6b,
        type: 3}
      propertyPath: m_LocalPosition.x
      value: -22.16
      objectReference: {fileID: 0}
    - target: {fileID: 2640915266357296414, guid: e56b57c377890c74cb68a655fa0c4e6b,
        type: 3}
      propertyPath: m_LocalPosition.y
      value: 0
      objectReference: {fileID: 0}
    - target: {fileID: 2640915266357296414, guid: e56b57c377890c74cb68a655fa0c4e6b,
        type: 3}
      propertyPath: m_LocalPosition.z
      value: 0
      objectReference: {fileID: 0}
    - target: {fileID: 2640915266357296414, guid: e56b57c377890c74cb68a655fa0c4e6b,
        type: 3}
      propertyPath: m_LocalRotation.x
      value: -0
      objectReference: {fileID: 0}
    - target: {fileID: 2640915266357296414, guid: e56b57c377890c74cb68a655fa0c4e6b,
        type: 3}
      propertyPath: m_LocalRotation.y
      value: -0
      objectReference: {fileID: 0}
    - target: {fileID: 2640915266357296414, guid: e56b57c377890c74cb68a655fa0c4e6b,
        type: 3}
      propertyPath: m_LocalRotation.z
      value: -0
      objectReference: {fileID: 0}
    - target: {fileID: 2640915266357296414, guid: e56b57c377890c74cb68a655fa0c4e6b,
        type: 3}
      propertyPath: m_LocalRotation.w
      value: 1
      objectReference: {fileID: 0}
    - target: {fileID: 2640915266357296414, guid: e56b57c377890c74cb68a655fa0c4e6b,
        type: 3}
      propertyPath: m_RootOrder
      value: 0
      objectReference: {fileID: 0}
    - target: {fileID: 2640915266357296414, guid: e56b57c377890c74cb68a655fa0c4e6b,
        type: 3}
      propertyPath: m_LocalEulerAnglesHint.x
      value: 0
      objectReference: {fileID: 0}
    - target: {fileID: 2640915266357296414, guid: e56b57c377890c74cb68a655fa0c4e6b,
        type: 3}
      propertyPath: m_LocalEulerAnglesHint.y
      value: 0
      objectReference: {fileID: 0}
    - target: {fileID: 2640915266357296414, guid: e56b57c377890c74cb68a655fa0c4e6b,
        type: 3}
      propertyPath: m_LocalEulerAnglesHint.z
      value: 0
      objectReference: {fileID: 0}
    - target: {fileID: 2640915266357296387, guid: e56b57c377890c74cb68a655fa0c4e6b,
        type: 3}
      propertyPath: m_Name
      value: Terrain
      objectReference: {fileID: 0}
    - target: {fileID: 2640915267018639578, guid: e56b57c377890c74cb68a655fa0c4e6b,
        type: 3}
      propertyPath: m_LocalPosition.x
      value: -16.1
      objectReference: {fileID: 0}
    - target: {fileID: 2640915267018639578, guid: e56b57c377890c74cb68a655fa0c4e6b,
        type: 3}
      propertyPath: m_LocalPosition.z
      value: 13.3
      objectReference: {fileID: 0}
    - target: {fileID: 2640915267018639578, guid: e56b57c377890c74cb68a655fa0c4e6b,
        type: 3}
      propertyPath: m_LocalScale.y
      value: 1.5435
      objectReference: {fileID: 0}
    - target: {fileID: 2640915266641907698, guid: e56b57c377890c74cb68a655fa0c4e6b,
        type: 3}
      propertyPath: m_LocalPosition.x
      value: -33.8
      objectReference: {fileID: 0}
    - target: {fileID: 2640915266641907698, guid: e56b57c377890c74cb68a655fa0c4e6b,
        type: 3}
      propertyPath: m_LocalPosition.z
      value: 17.63
      objectReference: {fileID: 0}
    - target: {fileID: 2640915266641907698, guid: e56b57c377890c74cb68a655fa0c4e6b,
        type: 3}
      propertyPath: m_LocalScale.y
      value: 2.2933
      objectReference: {fileID: 0}
    - target: {fileID: 2640915265325141320, guid: e56b57c377890c74cb68a655fa0c4e6b,
        type: 3}
      propertyPath: m_LocalPosition.x
      value: -16.3
      objectReference: {fileID: 0}
    - target: {fileID: 2640915265325141320, guid: e56b57c377890c74cb68a655fa0c4e6b,
        type: 3}
      propertyPath: m_LocalPosition.z
      value: 12.5
      objectReference: {fileID: 0}
    - target: {fileID: 2640915265325141320, guid: e56b57c377890c74cb68a655fa0c4e6b,
        type: 3}
      propertyPath: m_LocalScale.z
      value: 13.626809
      objectReference: {fileID: 0}
    - target: {fileID: 2640915265309910854, guid: e56b57c377890c74cb68a655fa0c4e6b,
        type: 3}
      propertyPath: InitialModule.startSizeY.minMaxState
      value: 3
      objectReference: {fileID: 0}
    - target: {fileID: 2640915265309910854, guid: e56b57c377890c74cb68a655fa0c4e6b,
        type: 3}
      propertyPath: InitialModule.startSizeZ.minMaxState
      value: 3
      objectReference: {fileID: 0}
    m_RemovedComponents: []
  m_SourcePrefab: {fileID: 100100000, guid: e56b57c377890c74cb68a655fa0c4e6b, type: 3}
--- !u!4 &2819855973488295806 stripped
Transform:
  m_CorrespondingSourceObject: {fileID: 2640915266357296414, guid: e56b57c377890c74cb68a655fa0c4e6b,
    type: 3}
  m_PrefabInstance: {fileID: 253413653744288352}
  m_PrefabAsset: {fileID: 0}
